/home/fly/git/neon_cloud_backend/neon_cloud/aws-dynamodb/src/main/java/com/flytxt/vision/aws/repository/custom/ContextRepositoryImpl.java
/home/fly/git/neon_cloud_backend/neon_cloud/aws-dynamodb/src/main/java/com/flytxt/vision/aws/dao/ProcessDao.java
/home/fly/git/neon_cloud_backend/neon_cloud/aws-dynamodb/src/main/java/com/flytxt/vision/aws/entity/OfferCodes.java
/home/fly/git/neon_cloud_backend/neon_cloud/aws-dynamodb/src/main/java/com/flytxt/vision/aws/repository/custom/CustomContextRepository.java
/home/fly/git/neon_cloud_backend/neon_cloud/aws-dynamodb/src/main/java/com/flytxt/vision/aws/repository/PageMappingRepository.java
/home/fly/git/neon_cloud_backend/neon_cloud/aws-dynamodb/src/main/java/com/flytxt/vision/aws/dao/ContextDao.java
/home/fly/git/neon_cloud_backend/neon_cloud/aws-dynamodb/src/main/java/com/flytxt/vision/aws/entity/Settings.java
/home/fly/git/neon_cloud_backend/neon_cloud/aws-dynamodb/src/main/java/com/flytxt/vision/aws/entity/ProcessFlowEntity.java
/home/fly/git/neon_cloud_backend/neon_cloud/aws-dynamodb/src/main/java/com/flytxt/vision/aws/dao/InitConfigDao.java
/home/fly/git/neon_cloud_backend/neon_cloud/aws-dynamodb/src/main/java/com/flytxt/vision/aws/dao/PageMppingDao.java
/home/fly/git/neon_cloud_backend/neon_cloud/aws-dynamodb/src/main/java/com/flytxt/vision/aws/entity/ConnectorInstance.java
/home/fly/git/neon_cloud_backend/neon_cloud/aws-dynamodb/src/main/java/com/flytxt/vision/aws/dao/OfferCodeDao.java
/home/fly/git/neon_cloud_backend/neon_cloud/aws-dynamodb/src/main/java/com/flytxt/vision/aws/config/DataStoreBeanImpl.java
/home/fly/git/neon_cloud_backend/neon_cloud/aws-dynamodb/src/main/java/com/flytxt/vision/aws/repository/OfferCodeRepository.java
/home/fly/git/neon_cloud_backend/neon_cloud/aws-dynamodb/src/main/java/com/flytxt/vision/aws/entity/PageMapping.java
/home/fly/git/neon_cloud_backend/neon_cloud/aws-dynamodb/src/main/java/com/flytxt/vision/aws/dao/ConnectorDao.java
/home/fly/git/neon_cloud_backend/neon_cloud/aws-dynamodb/src/main/java/com/flytxt/vision/aws/dao/AwsDDLDao.java
/home/fly/git/neon_cloud_backend/neon_cloud/aws-dynamodb/src/main/java/com/flytxt/vision/aws/repository/ProcessRepository.java
/home/fly/git/neon_cloud_backend/neon_cloud/aws-dynamodb/src/main/java/com/flytxt/vision/aws/repository/ContextRepository.java
/home/fly/git/neon_cloud_backend/neon_cloud/aws-dynamodb/src/main/java/com/flytxt/vision/aws/entity/UserEntity.java
/home/fly/git/neon_cloud_backend/neon_cloud/aws-dynamodb/src/main/java/com/flytxt/vision/aws/config/DynamoDBConfig.java
/home/fly/git/neon_cloud_backend/neon_cloud/aws-dynamodb/src/main/java/com/flytxt/vision/aws/repository/ConnectorRepository.java
/home/fly/git/neon_cloud_backend/neon_cloud/aws-dynamodb/src/main/java/com/flytxt/vision/aws/repository/UserRepository.java
/home/fly/git/neon_cloud_backend/neon_cloud/aws-dynamodb/src/main/java/com/flytxt/vision/aws/repository/SettingsRepository.java
/home/fly/git/neon_cloud_backend/neon_cloud/aws-dynamodb/src/main/java/com/flytxt/vision/aws/entity/ContextEntity.java
/home/fly/git/neon_cloud_backend/neon_cloud/aws-dynamodb/src/main/java/com/flytxt/vision/aws/dao/UserManagementDao.java
