<?xml version="1.0" encoding="UTF-8"?>
<testsuite xmlns:xsi="http://www.w3.org/2001/XMLSchema-instance" xsi:noNamespaceSchemaLocation="https://maven.apache.org/surefire/maven-surefire-plugin/xsd/surefire-test-report.xsd" name="com.flytxt.vision.configuration.AppTest" time="0.071" tests="1" errors="0" skipped="0" failures="0">
  <properties>
    <property name="sun.desktop" value="gnome"/>
    <property name="awt.toolkit" value="sun.awt.X11.XToolkit"/>
    <property name="file.encoding.pkg" value="sun.io"/>
    <property name="java.specification.version" value="1.8"/>
    <property name="sun.cpu.isalist" value=""/>
    <property name="sun.jnu.encoding" value="UTF-8"/>
    <property name="java.class.path" value="/home/fly/git/neon_cloud_backend/neon_cloud/configuration-services/target/test-classes:/home/fly/git/neon_cloud_backend/neon_cloud/configuration-services/target/classes:/home/fly/git/neon_cloud_backend/neon_cloud/service-core/target/service-core-0.0.1-SNAPSHOT.jar:/home/fly/.m2/repository/org/springframework/boot/spring-boot-starter-web/2.0.3.RELEASE/spring-boot-starter-web-2.0.3.RELEASE.jar:/home/fly/.m2/repository/org/springframework/boot/spring-boot-starter-json/2.0.3.RELEASE/spring-boot-starter-json-2.0.3.RELEASE.jar:/home/fly/.m2/repository/com/fasterxml/jackson/datatype/jackson-datatype-jdk8/2.9.6/jackson-datatype-jdk8-2.9.6.jar:/home/fly/.m2/repository/com/fasterxml/jackson/datatype/jackson-datatype-jsr310/2.9.6/jackson-datatype-jsr310-2.9.6.jar:/home/fly/.m2/repository/com/fasterxml/jackson/module/jackson-module-parameter-names/2.9.6/jackson-module-parameter-names-2.9.6.jar:/home/fly/.m2/repository/org/springframework/boot/spring-boot-starter-tomcat/2.0.3.RELEASE/spring-boot-starter-tomcat-2.0.3.RELEASE.jar:/home/fly/.m2/repository/org/apache/tomcat/embed/tomcat-embed-core/8.5.31/tomcat-embed-core-8.5.31.jar:/home/fly/.m2/repository/org/apache/tomcat/embed/tomcat-embed-el/8.5.31/tomcat-embed-el-8.5.31.jar:/home/fly/.m2/repository/org/apache/tomcat/embed/tomcat-embed-websocket/8.5.31/tomcat-embed-websocket-8.5.31.jar:/home/fly/.m2/repository/org/hibernate/validator/hibernate-validator/6.0.10.Final/hibernate-validator-6.0.10.Final.jar:/home/fly/.m2/repository/javax/validation/validation-api/2.0.1.Final/validation-api-2.0.1.Final.jar:/home/fly/.m2/repository/org/jboss/logging/jboss-logging/3.3.2.Final/jboss-logging-3.3.2.Final.jar:/home/fly/.m2/repository/com/fasterxml/classmate/1.3.4/classmate-1.3.4.jar:/home/fly/.m2/repository/org/springframework/spring-web/5.0.7.RELEASE/spring-web-5.0.7.RELEASE.jar:/home/fly/.m2/repository/org/springframework/spring-webmvc/5.0.7.RELEASE/spring-webmvc-5.0.7.RELEASE.jar:/home/fly/.m2/repository/org/springframework/data/spring-data-jpa/2.0.8.RELEASE/spring-data-jpa-2.0.8.RELEASE.jar:/home/fly/.m2/repository/org/springframework/data/spring-data-commons/2.0.8.RELEASE/spring-data-commons-2.0.8.RELEASE.jar:/home/fly/.m2/repository/org/springframework/spring-orm/5.0.7.RELEASE/spring-orm-5.0.7.RELEASE.jar:/home/fly/.m2/repository/org/springframework/spring-jdbc/5.0.7.RELEASE/spring-jdbc-5.0.7.RELEASE.jar:/home/fly/.m2/repository/org/springframework/spring-context/5.0.7.RELEASE/spring-context-5.0.7.RELEASE.jar:/home/fly/.m2/repository/org/springframework/spring-tx/5.0.7.RELEASE/spring-tx-5.0.7.RELEASE.jar:/home/fly/.m2/repository/org/springframework/spring-beans/5.0.7.RELEASE/spring-beans-5.0.7.RELEASE.jar:/home/fly/.m2/repository/org/springframework/spring-core/5.0.7.RELEASE/spring-core-5.0.7.RELEASE.jar:/home/fly/.m2/repository/org/springframework/spring-jcl/5.0.7.RELEASE/spring-jcl-5.0.7.RELEASE.jar:/home/fly/.m2/repository/org/aspectj/aspectjrt/1.8.13/aspectjrt-1.8.13.jar:/home/fly/.m2/repository/com/google/code/gson/gson/2.8.5/gson-2.8.5.jar:/home/fly/.m2/repository/io/jsonwebtoken/jjwt/0.9.0/jjwt-0.9.0.jar:/home/fly/git/neon_cloud_backend/neon_cloud/aws-services/target/aws-services-0.0.1-SNAPSHOT.jar:/home/fly/.m2/repository/com/amazonaws/aws-java-sdk-iam/1.11.562/aws-java-sdk-iam-1.11.562.jar:/home/fly/.m2/repository/com/amazonaws/aws-java-sdk-core/1.11.562/aws-java-sdk-core-1.11.562.jar:/home/fly/.m2/repository/org/apache/httpcomponents/httpclient/4.5.5/httpclient-4.5.5.jar:/home/fly/.m2/repository/org/apache/httpcomponents/httpcore/4.4.9/httpcore-4.4.9.jar:/home/fly/.m2/repository/commons-codec/commons-codec/1.11/commons-codec-1.11.jar:/home/fly/.m2/repository/software/amazon/ion/ion-java/1.0.2/ion-java-1.0.2.jar:/home/fly/.m2/repository/com/fasterxml/jackson/dataformat/jackson-dataformat-cbor/2.9.6/jackson-dataformat-cbor-2.9.6.jar:/home/fly/.m2/repository/joda-time/joda-time/2.9.9/joda-time-2.9.9.jar:/home/fly/.m2/repository/com/amazonaws/jmespath-java/1.11.562/jmespath-java-1.11.562.jar:/home/fly/.m2/repository/com/amazonaws/aws-java-sdk-transfer/1.11.565/aws-java-sdk-transfer-1.11.565.jar:/home/fly/.m2/repository/org/apache/jclouds/jclouds-compute/1.7.0/jclouds-compute-1.7.0.jar:/home/fly/.m2/repository/org/apache/jclouds/jclouds-scriptbuilder/1.7.0/jclouds-scriptbuilder-1.7.0.jar:/home/fly/.m2/repository/org/apache/jclouds/jclouds-core/1.7.0/jclouds-core-1.7.0.jar:/home/fly/.m2/repository/javax/ws/rs/jsr311-api/1.1.1/jsr311-api-1.1.1.jar:/home/fly/.m2/repository/com/google/inject/extensions/guice-assistedinject/3.0/guice-assistedinject-3.0.jar:/home/fly/.m2/repository/com/google/inject/guice/3.0/guice-3.0.jar:/home/fly/.m2/repository/aopalliance/aopalliance/1.0/aopalliance-1.0.jar:/home/fly/.m2/repository/org/99soft/guice/rocoto/6.2/rocoto-6.2.jar:/home/fly/.m2/repository/javax/inject/javax.inject/1/javax.inject-1.jar:/home/fly/.m2/repository/javax/annotation/jsr250-api/1.0/jsr250-api-1.0.jar:/home/fly/.m2/repository/com/google/guava/guava/18.0/guava-18.0.jar:/home/fly/.m2/repository/com/amazonaws/aws-java-sdk-s3/1.11.452/aws-java-sdk-s3-1.11.452.jar:/home/fly/.m2/repository/com/amazonaws/aws-java-sdk-kms/1.11.452/aws-java-sdk-kms-1.11.452.jar:/home/fly/.m2/repository/com/amazonaws/aws-java-sdk-dynamodb/1.11.452/aws-java-sdk-dynamodb-1.11.452.jar:/home/fly/.m2/repository/com/amazonaws/aws-java-sdk-sqs/1.11.573/aws-java-sdk-sqs-1.11.573.jar:/home/fly/.m2/repository/com/amazonaws/aws-java-sdk-sts/1.11.584/aws-java-sdk-sts-1.11.584.jar:/home/fly/.m2/repository/com/amazonaws/amazon-sqs-java-messaging-lib/1.0.6/amazon-sqs-java-messaging-lib-1.0.6.jar:/home/fly/.m2/repository/org/apache/geronimo/specs/geronimo-jms_1.1_spec/1.1.1/geronimo-jms_1.1_spec-1.1.1.jar:/home/fly/git/neon_cloud_backend/neon_cloud/aws-dynamodb/target/aws-dynamodb-0.0.1-SNAPSHOT.jar:/home/fly/.m2/repository/com/github/derjust/spring-data-dynamodb/5.0.3/spring-data-dynamodb-5.0.3.jar:/home/fly/.m2/repository/javax/enterprise/cdi-api/1.2/cdi-api-1.2.jar:/home/fly/.m2/repository/javax/el/javax.el-api/3.0.0/javax.el-api-3.0.0.jar:/home/fly/.m2/repository/javax/interceptor/javax.interceptor-api/1.2/javax.interceptor-api-1.2.jar:/home/fly/.m2/repository/org/springframework/boot/spring-boot-starter-security/2.0.3.RELEASE/spring-boot-starter-security-2.0.3.RELEASE.jar:/home/fly/.m2/repository/org/springframework/boot/spring-boot-starter/2.0.3.RELEASE/spring-boot-starter-2.0.3.RELEASE.jar:/home/fly/.m2/repository/org/springframework/boot/spring-boot/2.0.3.RELEASE/spring-boot-2.0.3.RELEASE.jar:/home/fly/.m2/repository/org/springframework/boot/spring-boot-autoconfigure/2.0.3.RELEASE/spring-boot-autoconfigure-2.0.3.RELEASE.jar:/home/fly/.m2/repository/org/springframework/boot/spring-boot-starter-logging/2.0.3.RELEASE/spring-boot-starter-logging-2.0.3.RELEASE.jar:/home/fly/.m2/repository/ch/qos/logback/logback-classic/1.2.3/logback-classic-1.2.3.jar:/home/fly/.m2/repository/ch/qos/logback/logback-core/1.2.3/logback-core-1.2.3.jar:/home/fly/.m2/repository/org/apache/logging/log4j/log4j-to-slf4j/2.10.0/log4j-to-slf4j-2.10.0.jar:/home/fly/.m2/repository/org/apache/logging/log4j/log4j-api/2.10.0/log4j-api-2.10.0.jar:/home/fly/.m2/repository/org/slf4j/jul-to-slf4j/1.7.25/jul-to-slf4j-1.7.25.jar:/home/fly/.m2/repository/javax/annotation/javax.annotation-api/1.3.2/javax.annotation-api-1.3.2.jar:/home/fly/.m2/repository/org/yaml/snakeyaml/1.19/snakeyaml-1.19.jar:/home/fly/.m2/repository/org/springframework/spring-aop/5.0.7.RELEASE/spring-aop-5.0.7.RELEASE.jar:/home/fly/.m2/repository/org/springframework/security/spring-security-config/5.0.6.RELEASE/spring-security-config-5.0.6.RELEASE.jar:/home/fly/.m2/repository/org/springframework/security/spring-security-core/5.0.6.RELEASE/spring-security-core-5.0.6.RELEASE.jar:/home/fly/.m2/repository/org/springframework/security/spring-security-web/5.0.6.RELEASE/spring-security-web-5.0.6.RELEASE.jar:/home/fly/.m2/repository/org/springframework/spring-expression/5.0.7.RELEASE/spring-expression-5.0.7.RELEASE.jar:/home/fly/.m2/repository/junit/junit/4.12/junit-4.12.jar:/home/fly/.m2/repository/org/hamcrest/hamcrest-core/1.3/hamcrest-core-1.3.jar:/home/fly/.m2/repository/org/projectlombok/lombok/1.16.22/lombok-1.16.22.jar:/home/fly/.m2/repository/com/frejo/force-rest-api/0.0.40/force-rest-api-0.0.40.jar:/home/fly/.m2/repository/org/slf4j/slf4j-api/1.7.25/slf4j-api-1.7.25.jar:/home/fly/.m2/repository/com/fasterxml/jackson/core/jackson-databind/2.9.6/jackson-databind-2.9.6.jar:/home/fly/.m2/repository/com/fasterxml/jackson/core/jackson-annotations/2.9.0/jackson-annotations-2.9.0.jar:/home/fly/.m2/repository/com/fasterxml/jackson/core/jackson-core/2.9.6/jackson-core-2.9.6.jar:/home/fly/.m2/repository/com/google/gdata/core/1.47.1/core-1.47.1.jar:/home/fly/.m2/repository/com/google/oauth-client/google-oauth-client-jetty/1.11.0-beta/google-oauth-client-jetty-1.11.0-beta.jar:/home/fly/.m2/repository/com/google/oauth-client/google-oauth-client-java6/1.11.0-beta/google-oauth-client-java6-1.11.0-beta.jar:/home/fly/.m2/repository/org/mortbay/jetty/jetty/6.1.26/jetty-6.1.26.jar:/home/fly/.m2/repository/org/mortbay/jetty/jetty-util/6.1.26/jetty-util-6.1.26.jar:/home/fly/.m2/repository/org/mortbay/jetty/servlet-api/2.5-20081211/servlet-api-2.5-20081211.jar:/home/fly/.m2/repository/com/google/code/findbugs/jsr305/1.3.7/jsr305-1.3.7.jar:/home/fly/.m2/repository/javax/mail/mail/1.4/mail-1.4.jar:/home/fly/.m2/repository/javax/activation/activation/1.1/activation-1.1.jar:/home/fly/.m2/repository/com/google/apis/google-api-services-sheets/v4-rev567-1.25.0/google-api-services-sheets-v4-rev567-1.25.0.jar:/home/fly/.m2/repository/com/google/api-client/google-api-client/1.25.0/google-api-client-1.25.0.jar:/home/fly/.m2/repository/com/google/oauth-client/google-oauth-client/1.25.0/google-oauth-client-1.25.0.jar:/home/fly/.m2/repository/com/google/http-client/google-http-client/1.25.0/google-http-client-1.25.0.jar:/home/fly/.m2/repository/com/google/j2objc/j2objc-annotations/1.1/j2objc-annotations-1.1.jar:/home/fly/.m2/repository/com/google/http-client/google-http-client-jackson2/1.25.0/google-http-client-jackson2-1.25.0.jar:/home/fly/.m2/repository/com/google/apis/google-api-services-drive/v3-rev153-1.25.0/google-api-services-drive-v3-rev153-1.25.0.jar:/home/fly/.m2/repository/com/opencsv/opencsv/4.0/opencsv-4.0.jar:/home/fly/.m2/repository/org/apache/commons/commons-lang3/3.7/commons-lang3-3.7.jar:/home/fly/.m2/repository/org/apache/commons/commons-text/1.1/commons-text-1.1.jar:/home/fly/.m2/repository/commons-beanutils/commons-beanutils/1.9.3/commons-beanutils-1.9.3.jar:/home/fly/.m2/repository/commons-logging/commons-logging/1.2/commons-logging-1.2.jar:/home/fly/.m2/repository/commons-collections/commons-collections/3.2.2/commons-collections-3.2.2.jar:"/>
    <property name="java.vm.vendor" value="Oracle Corporation"/>
    <property name="sun.arch.data.model" value="64"/>
    <property name="java.vendor.url" value="http://java.oracle.com/"/>
    <property name="user.timezone" value=""/>
    <property name="java.vm.specification.version" value="1.8"/>
    <property name="os.name" value="Linux"/>
    <property name="user.country" value="IN"/>
    <property name="sun.java.launcher" value="SUN_STANDARD"/>
    <property name="sun.boot.library.path" value="/opt/java/jdk1.8.0_181/jre/lib/amd64"/>
    <property name="sun.java.command" value="/home/fly/git/neon_cloud_backend/neon_cloud/configuration-services/target/surefire/surefirebooter2521589976071275415.jar /home/fly/git/neon_cloud_backend/neon_cloud/configuration-services/target/surefire 2019-08-06T15-03-09_703-jvmRun1 surefire1300462384552685004tmp surefire_49149509401576420619tmp"/>
    <property name="surefire.test.class.path" value="/home/fly/git/neon_cloud_backend/neon_cloud/configuration-services/target/test-classes:/home/fly/git/neon_cloud_backend/neon_cloud/configuration-services/target/classes:/home/fly/git/neon_cloud_backend/neon_cloud/service-core/target/service-core-0.0.1-SNAPSHOT.jar:/home/fly/.m2/repository/org/springframework/boot/spring-boot-starter-web/2.0.3.RELEASE/spring-boot-starter-web-2.0.3.RELEASE.jar:/home/fly/.m2/repository/org/springframework/boot/spring-boot-starter-json/2.0.3.RELEASE/spring-boot-starter-json-2.0.3.RELEASE.jar:/home/fly/.m2/repository/com/fasterxml/jackson/datatype/jackson-datatype-jdk8/2.9.6/jackson-datatype-jdk8-2.9.6.jar:/home/fly/.m2/repository/com/fasterxml/jackson/datatype/jackson-datatype-jsr310/2.9.6/jackson-datatype-jsr310-2.9.6.jar:/home/fly/.m2/repository/com/fasterxml/jackson/module/jackson-module-parameter-names/2.9.6/jackson-module-parameter-names-2.9.6.jar:/home/fly/.m2/repository/org/springframework/boot/spring-boot-starter-tomcat/2.0.3.RELEASE/spring-boot-starter-tomcat-2.0.3.RELEASE.jar:/home/fly/.m2/repository/org/apache/tomcat/embed/tomcat-embed-core/8.5.31/tomcat-embed-core-8.5.31.jar:/home/fly/.m2/repository/org/apache/tomcat/embed/tomcat-embed-el/8.5.31/tomcat-embed-el-8.5.31.jar:/home/fly/.m2/repository/org/apache/tomcat/embed/tomcat-embed-websocket/8.5.31/tomcat-embed-websocket-8.5.31.jar:/home/fly/.m2/repository/org/hibernate/validator/hibernate-validator/6.0.10.Final/hibernate-validator-6.0.10.Final.jar:/home/fly/.m2/repository/javax/validation/validation-api/2.0.1.Final/validation-api-2.0.1.Final.jar:/home/fly/.m2/repository/org/jboss/logging/jboss-logging/3.3.2.Final/jboss-logging-3.3.2.Final.jar:/home/fly/.m2/repository/com/fasterxml/classmate/1.3.4/classmate-1.3.4.jar:/home/fly/.m2/repository/org/springframework/spring-web/5.0.7.RELEASE/spring-web-5.0.7.RELEASE.jar:/home/fly/.m2/repository/org/springframework/spring-webmvc/5.0.7.RELEASE/spring-webmvc-5.0.7.RELEASE.jar:/home/fly/.m2/repository/org/springframework/data/spring-data-jpa/2.0.8.RELEASE/spring-data-jpa-2.0.8.RELEASE.jar:/home/fly/.m2/repository/org/springframework/data/spring-data-commons/2.0.8.RELEASE/spring-data-commons-2.0.8.RELEASE.jar:/home/fly/.m2/repository/org/springframework/spring-orm/5.0.7.RELEASE/spring-orm-5.0.7.RELEASE.jar:/home/fly/.m2/repository/org/springframework/spring-jdbc/5.0.7.RELEASE/spring-jdbc-5.0.7.RELEASE.jar:/home/fly/.m2/repository/org/springframework/spring-context/5.0.7.RELEASE/spring-context-5.0.7.RELEASE.jar:/home/fly/.m2/repository/org/springframework/spring-tx/5.0.7.RELEASE/spring-tx-5.0.7.RELEASE.jar:/home/fly/.m2/repository/org/springframework/spring-beans/5.0.7.RELEASE/spring-beans-5.0.7.RELEASE.jar:/home/fly/.m2/repository/org/springframework/spring-core/5.0.7.RELEASE/spring-core-5.0.7.RELEASE.jar:/home/fly/.m2/repository/org/springframework/spring-jcl/5.0.7.RELEASE/spring-jcl-5.0.7.RELEASE.jar:/home/fly/.m2/repository/org/aspectj/aspectjrt/1.8.13/aspectjrt-1.8.13.jar:/home/fly/.m2/repository/com/google/code/gson/gson/2.8.5/gson-2.8.5.jar:/home/fly/.m2/repository/io/jsonwebtoken/jjwt/0.9.0/jjwt-0.9.0.jar:/home/fly/git/neon_cloud_backend/neon_cloud/aws-services/target/aws-services-0.0.1-SNAPSHOT.jar:/home/fly/.m2/repository/com/amazonaws/aws-java-sdk-iam/1.11.562/aws-java-sdk-iam-1.11.562.jar:/home/fly/.m2/repository/com/amazonaws/aws-java-sdk-core/1.11.562/aws-java-sdk-core-1.11.562.jar:/home/fly/.m2/repository/org/apache/httpcomponents/httpclient/4.5.5/httpclient-4.5.5.jar:/home/fly/.m2/repository/org/apache/httpcomponents/httpcore/4.4.9/httpcore-4.4.9.jar:/home/fly/.m2/repository/commons-codec/commons-codec/1.11/commons-codec-1.11.jar:/home/fly/.m2/repository/software/amazon/ion/ion-java/1.0.2/ion-java-1.0.2.jar:/home/fly/.m2/repository/com/fasterxml/jackson/dataformat/jackson-dataformat-cbor/2.9.6/jackson-dataformat-cbor-2.9.6.jar:/home/fly/.m2/repository/joda-time/joda-time/2.9.9/joda-time-2.9.9.jar:/home/fly/.m2/repository/com/amazonaws/jmespath-java/1.11.562/jmespath-java-1.11.562.jar:/home/fly/.m2/repository/com/amazonaws/aws-java-sdk-transfer/1.11.565/aws-java-sdk-transfer-1.11.565.jar:/home/fly/.m2/repository/org/apache/jclouds/jclouds-compute/1.7.0/jclouds-compute-1.7.0.jar:/home/fly/.m2/repository/org/apache/jclouds/jclouds-scriptbuilder/1.7.0/jclouds-scriptbuilder-1.7.0.jar:/home/fly/.m2/repository/org/apache/jclouds/jclouds-core/1.7.0/jclouds-core-1.7.0.jar:/home/fly/.m2/repository/javax/ws/rs/jsr311-api/1.1.1/jsr311-api-1.1.1.jar:/home/fly/.m2/repository/com/google/inject/extensions/guice-assistedinject/3.0/guice-assistedinject-3.0.jar:/home/fly/.m2/repository/com/google/inject/guice/3.0/guice-3.0.jar:/home/fly/.m2/repository/aopalliance/aopalliance/1.0/aopalliance-1.0.jar:/home/fly/.m2/repository/org/99soft/guice/rocoto/6.2/rocoto-6.2.jar:/home/fly/.m2/repository/javax/inject/javax.inject/1/javax.inject-1.jar:/home/fly/.m2/repository/javax/annotation/jsr250-api/1.0/jsr250-api-1.0.jar:/home/fly/.m2/repository/com/google/guava/guava/18.0/guava-18.0.jar:/home/fly/.m2/repository/com/amazonaws/aws-java-sdk-s3/1.11.452/aws-java-sdk-s3-1.11.452.jar:/home/fly/.m2/repository/com/amazonaws/aws-java-sdk-kms/1.11.452/aws-java-sdk-kms-1.11.452.jar:/home/fly/.m2/repository/com/amazonaws/aws-java-sdk-dynamodb/1.11.452/aws-java-sdk-dynamodb-1.11.452.jar:/home/fly/.m2/repository/com/amazonaws/aws-java-sdk-sqs/1.11.573/aws-java-sdk-sqs-1.11.573.jar:/home/fly/.m2/repository/com/amazonaws/aws-java-sdk-sts/1.11.584/aws-java-sdk-sts-1.11.584.jar:/home/fly/.m2/repository/com/amazonaws/amazon-sqs-java-messaging-lib/1.0.6/amazon-sqs-java-messaging-lib-1.0.6.jar:/home/fly/.m2/repository/org/apache/geronimo/specs/geronimo-jms_1.1_spec/1.1.1/geronimo-jms_1.1_spec-1.1.1.jar:/home/fly/git/neon_cloud_backend/neon_cloud/aws-dynamodb/target/aws-dynamodb-0.0.1-SNAPSHOT.jar:/home/fly/.m2/repository/com/github/derjust/spring-data-dynamodb/5.0.3/spring-data-dynamodb-5.0.3.jar:/home/fly/.m2/repository/javax/enterprise/cdi-api/1.2/cdi-api-1.2.jar:/home/fly/.m2/repository/javax/el/javax.el-api/3.0.0/javax.el-api-3.0.0.jar:/home/fly/.m2/repository/javax/interceptor/javax.interceptor-api/1.2/javax.interceptor-api-1.2.jar:/home/fly/.m2/repository/org/springframework/boot/spring-boot-starter-security/2.0.3.RELEASE/spring-boot-starter-security-2.0.3.RELEASE.jar:/home/fly/.m2/repository/org/springframework/boot/spring-boot-starter/2.0.3.RELEASE/spring-boot-starter-2.0.3.RELEASE.jar:/home/fly/.m2/repository/org/springframework/boot/spring-boot/2.0.3.RELEASE/spring-boot-2.0.3.RELEASE.jar:/home/fly/.m2/repository/org/springframework/boot/spring-boot-autoconfigure/2.0.3.RELEASE/spring-boot-autoconfigure-2.0.3.RELEASE.jar:/home/fly/.m2/repository/org/springframework/boot/spring-boot-starter-logging/2.0.3.RELEASE/spring-boot-starter-logging-2.0.3.RELEASE.jar:/home/fly/.m2/repository/ch/qos/logback/logback-classic/1.2.3/logback-classic-1.2.3.jar:/home/fly/.m2/repository/ch/qos/logback/logback-core/1.2.3/logback-core-1.2.3.jar:/home/fly/.m2/repository/org/apache/logging/log4j/log4j-to-slf4j/2.10.0/log4j-to-slf4j-2.10.0.jar:/home/fly/.m2/repository/org/apache/logging/log4j/log4j-api/2.10.0/log4j-api-2.10.0.jar:/home/fly/.m2/repository/org/slf4j/jul-to-slf4j/1.7.25/jul-to-slf4j-1.7.25.jar:/home/fly/.m2/repository/javax/annotation/javax.annotation-api/1.3.2/javax.annotation-api-1.3.2.jar:/home/fly/.m2/repository/org/yaml/snakeyaml/1.19/snakeyaml-1.19.jar:/home/fly/.m2/repository/org/springframework/spring-aop/5.0.7.RELEASE/spring-aop-5.0.7.RELEASE.jar:/home/fly/.m2/repository/org/springframework/security/spring-security-config/5.0.6.RELEASE/spring-security-config-5.0.6.RELEASE.jar:/home/fly/.m2/repository/org/springframework/security/spring-security-core/5.0.6.RELEASE/spring-security-core-5.0.6.RELEASE.jar:/home/fly/.m2/repository/org/springframework/security/spring-security-web/5.0.6.RELEASE/spring-security-web-5.0.6.RELEASE.jar:/home/fly/.m2/repository/org/springframework/spring-expression/5.0.7.RELEASE/spring-expression-5.0.7.RELEASE.jar:/home/fly/.m2/repository/junit/junit/4.12/junit-4.12.jar:/home/fly/.m2/repository/org/hamcrest/hamcrest-core/1.3/hamcrest-core-1.3.jar:/home/fly/.m2/repository/org/projectlombok/lombok/1.16.22/lombok-1.16.22.jar:/home/fly/.m2/repository/com/frejo/force-rest-api/0.0.40/force-rest-api-0.0.40.jar:/home/fly/.m2/repository/org/slf4j/slf4j-api/1.7.25/slf4j-api-1.7.25.jar:/home/fly/.m2/repository/com/fasterxml/jackson/core/jackson-databind/2.9.6/jackson-databind-2.9.6.jar:/home/fly/.m2/repository/com/fasterxml/jackson/core/jackson-annotations/2.9.0/jackson-annotations-2.9.0.jar:/home/fly/.m2/repository/com/fasterxml/jackson/core/jackson-core/2.9.6/jackson-core-2.9.6.jar:/home/fly/.m2/repository/com/google/gdata/core/1.47.1/core-1.47.1.jar:/home/fly/.m2/repository/com/google/oauth-client/google-oauth-client-jetty/1.11.0-beta/google-oauth-client-jetty-1.11.0-beta.jar:/home/fly/.m2/repository/com/google/oauth-client/google-oauth-client-java6/1.11.0-beta/google-oauth-client-java6-1.11.0-beta.jar:/home/fly/.m2/repository/org/mortbay/jetty/jetty/6.1.26/jetty-6.1.26.jar:/home/fly/.m2/repository/org/mortbay/jetty/jetty-util/6.1.26/jetty-util-6.1.26.jar:/home/fly/.m2/repository/org/mortbay/jetty/servlet-api/2.5-20081211/servlet-api-2.5-20081211.jar:/home/fly/.m2/repository/com/google/code/findbugs/jsr305/1.3.7/jsr305-1.3.7.jar:/home/fly/.m2/repository/javax/mail/mail/1.4/mail-1.4.jar:/home/fly/.m2/repository/javax/activation/activation/1.1/activation-1.1.jar:/home/fly/.m2/repository/com/google/apis/google-api-services-sheets/v4-rev567-1.25.0/google-api-services-sheets-v4-rev567-1.25.0.jar:/home/fly/.m2/repository/com/google/api-client/google-api-client/1.25.0/google-api-client-1.25.0.jar:/home/fly/.m2/repository/com/google/oauth-client/google-oauth-client/1.25.0/google-oauth-client-1.25.0.jar:/home/fly/.m2/repository/com/google/http-client/google-http-client/1.25.0/google-http-client-1.25.0.jar:/home/fly/.m2/repository/com/google/j2objc/j2objc-annotations/1.1/j2objc-annotations-1.1.jar:/home/fly/.m2/repository/com/google/http-client/google-http-client-jackson2/1.25.0/google-http-client-jackson2-1.25.0.jar:/home/fly/.m2/repository/com/google/apis/google-api-services-drive/v3-rev153-1.25.0/google-api-services-drive-v3-rev153-1.25.0.jar:/home/fly/.m2/repository/com/opencsv/opencsv/4.0/opencsv-4.0.jar:/home/fly/.m2/repository/org/apache/commons/commons-lang3/3.7/commons-lang3-3.7.jar:/home/fly/.m2/repository/org/apache/commons/commons-text/1.1/commons-text-1.1.jar:/home/fly/.m2/repository/commons-beanutils/commons-beanutils/1.9.3/commons-beanutils-1.9.3.jar:/home/fly/.m2/repository/commons-logging/commons-logging/1.2/commons-logging-1.2.jar:/home/fly/.m2/repository/commons-collections/commons-collections/3.2.2/commons-collections-3.2.2.jar:"/>
    <property name="sun.cpu.endian" value="little"/>
    <property name="user.home" value="/home/fly"/>
    <property name="user.language" value="en"/>
    <property name="java.specification.vendor" value="Oracle Corporation"/>
    <property name="java.home" value="/opt/java/jdk1.8.0_181/jre"/>
    <property name="basedir" value="/home/fly/git/neon_cloud_backend/neon_cloud/configuration-services"/>
    <property name="file.separator" value="/"/>
    <property name="line.separator" value="&#10;"/>
    <property name="java.vm.specification.vendor" value="Oracle Corporation"/>
    <property name="java.specification.name" value="Java Platform API Specification"/>
    <property name="java.awt.graphicsenv" value="sun.awt.X11GraphicsEnvironment"/>
    <property name="surefire.real.class.path" value="/home/fly/git/neon_cloud_backend/neon_cloud/configuration-services/target/surefire/surefirebooter2521589976071275415.jar"/>
    <property name="sun.boot.class.path" value="/opt/java/jdk1.8.0_181/jre/lib/resources.jar:/opt/java/jdk1.8.0_181/jre/lib/rt.jar:/opt/java/jdk1.8.0_181/jre/lib/sunrsasign.jar:/opt/java/jdk1.8.0_181/jre/lib/jsse.jar:/opt/java/jdk1.8.0_181/jre/lib/jce.jar:/opt/java/jdk1.8.0_181/jre/lib/charsets.jar:/opt/java/jdk1.8.0_181/jre/lib/jfr.jar:/opt/java/jdk1.8.0_181/jre/classes"/>
    <property name="sun.management.compiler" value="HotSpot 64-Bit Tiered Compilers"/>
    <property name="java.runtime.version" value="1.8.0_181-b13"/>
    <property name="user.name" value="fly"/>
    <property name="path.separator" value=":"/>
    <property name="os.version" value="4.10.0-38-generic"/>
    <property name="java.endorsed.dirs" value="/opt/java/jdk1.8.0_181/jre/lib/endorsed"/>
    <property name="java.runtime.name" value="Java(TM) SE Runtime Environment"/>
    <property name="file.encoding" value="UTF-8"/>
    <property name="java.vm.name" value="Java HotSpot(TM) 64-Bit Server VM"/>
    <property name="localRepository" value="/home/fly/.m2/repository"/>
    <property name="java.vendor.url.bug" value="http://bugreport.sun.com/bugreport/"/>
    <property name="java.io.tmpdir" value="/tmp"/>
    <property name="java.version" value="1.8.0_181"/>
    <property name="user.dir" value="/home/fly/git/neon_cloud_backend/neon_cloud/configuration-services"/>
    <property name="os.arch" value="amd64"/>
    <property name="java.vm.specification.name" value="Java Virtual Machine Specification"/>
    <property name="java.awt.printerjob" value="sun.print.PSPrinterJob"/>
    <property name="sun.os.patch.level" value="unknown"/>
    <property name="java.library.path" value="/usr/java/packages/lib/amd64:/usr/lib64:/lib64:/lib:/usr/lib"/>
    <property name="java.vm.info" value="mixed mode"/>
    <property name="java.vendor" value="Oracle Corporation"/>
    <property name="java.vm.version" value="25.181-b13"/>
    <property name="java.ext.dirs" value="/opt/java/jdk1.8.0_181/jre/lib/ext:/usr/java/packages/lib/ext"/>
    <property name="sun.io.unicode.encoding" value="UnicodeLittle"/>
    <property name="java.class.version" value="52.0"/>
  </properties>
  <testcase name="testApp" classname="com.flytxt.vision.configuration.AppTest" time="0.002"/>
</testsuite>