/home/fly/git/neon_cloud_backend/neon_cloud/service-core/src/main/java/com/flytxt/vision/core/filter/PredicatesBuilder.java
/home/fly/git/neon_cloud_backend/neon_cloud/service-core/src/main/java/com/flytxt/vision/core/config/ResponseFilterAdvice.java
/home/fly/git/neon_cloud_backend/neon_cloud/service-core/src/main/java/com/flytxt/vision/core/service/VisionService.java
/home/fly/git/neon_cloud_backend/neon_cloud/service-core/src/main/java/com/flytxt/vision/core/exception/ZeppelinException.java
/home/fly/git/neon_cloud_backend/neon_cloud/service-core/src/main/java/com/flytxt/vision/utils/Constants.java
/home/fly/git/neon_cloud_backend/neon_cloud/service-core/src/main/java/com/flytxt/vision/core/filter/FilterUtils.java
/home/fly/git/neon_cloud_backend/neon_cloud/service-core/src/main/java/com/flytxt/vision/core/entity/VisionEntity.java
/home/fly/git/neon_cloud_backend/neon_cloud/service-core/src/main/java/com/flytxt/vision/core/entity/Pages.java
/home/fly/git/neon_cloud_backend/neon_cloud/service-core/src/main/java/com/flytxt/vision/core/dao/DataStoreBean.java
/home/fly/git/neon_cloud_backend/neon_cloud/service-core/src/main/java/com/flytxt/vision/core/filter/entity/Filter.java
/home/fly/git/neon_cloud_backend/neon_cloud/service-core/src/main/java/com/flytxt/vision/utils/HelperUtils.java
/home/fly/git/neon_cloud_backend/neon_cloud/service-core/src/main/java/com/flytxt/vision/core/exception/VisionRuntimeException.java
/home/fly/git/neon_cloud_backend/neon_cloud/service-core/src/main/java/com/flytxt/vision/core/controller/VisionController.java
/home/fly/git/neon_cloud_backend/neon_cloud/service-core/src/main/java/com/flytxt/vision/core/service/AbstractService.java
/home/fly/git/neon_cloud_backend/neon_cloud/service-core/src/main/java/com/flytxt/vision/core/entity/CustomDataFilter.java
/home/fly/git/neon_cloud_backend/neon_cloud/service-core/src/main/java/com/flytxt/vision/core/config/MessageHandler.java
/home/fly/git/neon_cloud_backend/neon_cloud/service-core/src/main/java/com/flytxt/vision/core/config/MessageConfig.java
/home/fly/git/neon_cloud_backend/neon_cloud/service-core/src/main/java/com/flytxt/vision/core/filter/FilterPredicate.java
/home/fly/git/neon_cloud_backend/neon_cloud/service-core/src/main/java/com/flytxt/vision/core/filter/entity/FilterRules.java
/home/fly/git/neon_cloud_backend/neon_cloud/service-core/src/main/java/com/flytxt/vision/core/config/CustoMessagesBundle.java
/home/fly/git/neon_cloud_backend/neon_cloud/service-core/src/main/java/com/flytxt/vision/core/dao/DDLDao.java
/home/fly/git/neon_cloud_backend/neon_cloud/service-core/src/main/java/com/flytxt/vision/core/exception/VisionException.java
/home/fly/git/neon_cloud_backend/neon_cloud/service-core/src/main/java/com/flytxt/vision/core/exception/ApiError.java
/home/fly/git/neon_cloud_backend/neon_cloud/service-core/src/main/java/com/flytxt/vision/core/entity/NonPersistableVisionEntity.java
/home/fly/git/neon_cloud_backend/neon_cloud/service-core/src/main/java/com/flytxt/vision/core/filter/ServiceField.java
/home/fly/git/neon_cloud_backend/neon_cloud/service-core/src/main/java/com/flytxt/vision/core/annotations/Unique.java
/home/fly/git/neon_cloud_backend/neon_cloud/service-core/src/main/java/com/flytxt/vision/core/config/CustomPropertiesPersistor.java
/home/fly/git/neon_cloud_backend/neon_cloud/service-core/src/main/java/com/flytxt/vision/utils/TenantUtils.java
/home/fly/git/neon_cloud_backend/neon_cloud/service-core/src/main/java/com/flytxt/vision/core/exception/MessageType.java
/home/fly/git/neon_cloud_backend/neon_cloud/service-core/src/main/java/com/flytxt/vision/core/entity/FieldEntity.java
/home/fly/git/neon_cloud_backend/neon_cloud/service-core/src/main/java/com/flytxt/vision/core/dao/VisionDao.java
